{
  "type": "service_account",
  "project_id": "france-cd138",
  "private_key_id": "a77647117add49ab13b509c734e58424be5016e4",
  "private_key": "-----BEGIN PRIVATE KEY-----\nMIIEvAIBADANBgkqhkiG9w0BAQEFAASCBKYwggSiAgEAAoIBAQCwZVydD4vWl1W9\nkVHDv7WtUOS8B8H9pyz9Hlodp6jWkvqBfX4li3O+2keFCAYw2f06XZI8fu/1Tbpr\nQjW/t40N58WI8f5iEAXP80kO30oirNiFiIjDZRk2b1SlqBAeSJt3FK0jPycveIEL\nQVz22SFgZjEWeiaHzoiBMViaGcH6Jc8B7lVCNx64jrGEGCcE1FoBpV7aIU7h0bq7\nd9VqhchD62uemqEXRg4cW193KG02kta9AjkAWzjVS8YprLn059Smu/es4LwXPyeK\n6qvIleSbL50FY7EyGhSFgIgjpK0j+yI6PPgTyPSEl53NSaeMAmKY8nf0P0nb3Vv0\nKGl3vX1VAgMBAAECggEAAIWsSoK7RT1ZcaA2f7/Xh9XPd4cGWfvetDkcxy2x4EC7\nIRr//ph1FUGMKKanbgmXKE8Smb8+cplyTdL6WcDvV/UxroAY4q1tdvofYz3h+ExO\nr8aBsSJhernFpF/k/FH2s9mJ0arkMM3IhAIDhm+KG8DxsEFYT9qaqNc+jeY5nsXw\nnicAkCpyjB0w2+aUlraYlKozoN9vq5sbH47KZCJXW6pcvw/Cux/1f4kPkgscoNaJ\n0ZQg0LPpyIzfaxpZm2VoW9YNohm9h3/dLg0idqeD2Gmkb3EgnbmvhQilaWKwyD2c\nq/lOK+AklOpd3hzbXhLzGYhk3xbgYK0Z4VGtma8K2QKBgQDjDN+LjScZJuJY3Ll/\nqd7tZ0nbRolLHVxjx+9OlsJ7tpokQEejmlZnsZShCglykctTho5Wxy73UhEFtJbK\nc0B6EBRbptvqEIVK7dkK1f5lgkFMpoREPTBIiqautM/xp9Cioj6IE6foi07Fe/mJ\noPBoMSKuPzPrOcpy8S4l4kiKWwKBgQDG4xXC4zvyWpiWjbe9ZpdYdwQIwbGwk+3H\nj1u6Y/N5aLzxCTOYB+bpEE6Fi+QH59vCZgcoYnA7n2UFG6jK5Jp7QahPSNMqH0d7\nE2qubAWusq3a0O8vIWGOVF04ZsdQsG3ptQ4UtdFEo5RZAS5+VtulULokHvGuZg+J\ncmflamHGDwKBgBhQRpgBE5DD8zUk3dBn9nFhwCz1Drq2eDBPNrcpucXZtgPvxjwk\nyN/tyka8dmqIZkeZfyCXz9W4Og5sWkFvuhXYJvXxllcoUb3GXpmkdMuV+TwmEL/l\n9YevIU5QGnx8RgFEcoHL6Q0j7dmD/yLX0ya1LEuQhRTJaX6JiTGRW8dFAoGAahpt\n2pnFumaQrwkN9BJOPZjI4y8Kb8yLdwJJCmgWVTgGTIT/LGVS0BWt/lsCHSGZwN0T\nhnz1qSlBCHeYFh3dOFJvy1RrqzYiuUtDh6gDZA7Y5zq9z6P8WqUxUkyqmqZ1DNBV\nocDZ0sd99fnGZwpJhalKlMiZYNP8B/Sr7t1RKgsCgYBVXSF2n1xAalNY/0ustPQ/\nyo83ZyXg058iJUDB3bv5ueQRSocveAjSivk0JiPIVVkuVyVGvlV4jbfO3Ljf4IqR\n/WQsUCs0aMi2USCMf84h1md+xh/Vt6Dc9v33Ay5X42z1+9fqx1mcmCpiT/tjYIwk\n/OiNCSP/mAHNhJR/yZ3WuQ==\n-----END PRIVATE KEY-----\n",
  "client_email": "firebase-adminsdk-l7xem@france-cd138.iam.gserviceaccount.com",
  "client_id": "103194024961143870897",
  "auth_uri": "https://accounts.google.com/o/oauth2/auth",
  "token_uri": "https://oauth2.googleapis.com/token",
  "auth_provider_x509_cert_url": "https://www.googleapis.com/oauth2/v1/certs",
  "client_x509_cert_url": "https://www.googleapis.com/robot/v1/metadata/x509/firebase-adminsdk-l7xem%40france-cd138.iam.gserviceaccount.com"
}
