{
  "type": "service_account",
  "project_id": "spane-eae46",
  "private_key_id": "1ea754032f9e8e17ab8d2788bc120b90a4d9476b",
  "private_key": "-----BEGIN PRIVATE KEY-----\nMIIEvgIBADANBgkqhkiG9w0BAQEFAASCBKgwggSkAgEAAoIBAQDrzjEvikib70LT\n3wWamBnzE1g1aqKIvNIoVFA+nBADrg6sTbOa47bN0o3VuSfajCRTNw+RlwLvCoCu\nEWBqVl2RYoGKhz2u4Bgl3ohAyGtsTLVLp0N0L3SDipNrPRa+KbekOsY/cFBDv5CM\nhwXuHGH7ge9A3h1uDG8v+8jTP0hzl5p19twlmPtvkO+9KOGL2lfQNWFS4vQNuzSb\negLKJoTYrUYg+jDQjaL8xzp0g1LiNtZw4fGi26O/6YhNAg1oHDSNw6EM4MypKjI6\nPwks4q8v31pFXNj0ETfXaMJNdg+XWLgaf8+p5C5DxAJc8owGXTTsUF356gcCifyW\nK1u7kkIVAgMBAAECggEAZhUD5wxK5bK9MAKvJt9s8HWx7KIGzgJMSqhBevFN34H1\nGTOkKswk4dKik2EON0cPHLVL+J+y5fAaiAC+yBoudJd79BAbLH8YBSDixITfOGm2\n3JMDGSPIIYAW1MiD9XwS47aMB3+kR8gBGE0FzLCd3GdCP8dIX1FjuxaZuJX/VAZ7\nNXkeawxZTll7gsArr2vj+EdQjNzSMH+xesPdtSIXR3YOT6X/7AH8mvq9c7ALRMcM\nriKCfSW3I4F43BsSvVu0mRshLAXF4sb6bMpxYnFGy832g68DKpgvk62Pypqu742p\nOH41xbdDYcbHOw6ohbvgz5rsoU1mg7wvxhW2Sz7TewKBgQD/SD1iTDZHyPcYsqeZ\nE1PYjIA8zNleXlZBdrBIlfRSPRo68gSJzNlbwXtwpTZSo+JOPAl1rKbJE3MnUJKp\nuLidzXZwtkZ7Y6kiXTxX28/CTICwEFw9rq+HFTgoX0dUolygovOiUMZPXg6rUGfI\ndUcJU5GttTvo7OP/TKHus0Cn7wKBgQDsd+6vuGYosCmxUnxHxCN7kWc9CbDS2Hkl\n9Tgqk/zQJZEWdLy6sskX9tbBGmQyANEMGJMN99+34gpzJPoIBQhbNrSi+K1LQKtB\nwRy2u0r5lT6/RS485sxBt22yfpEIVAiasrjRFSnA10LIPcJ/yAiuKDlliDarvNPK\ncH1mLy9SOwKBgC+tfkltknW1wvCJ7WNZiL9Y/lpcp/xIAjQXxrTHzOnPH6cCrHZQ\nHAhXCobvVEX69blG3T1tEXlceJVPJxUrus8+IHDMmj1RT7VrVGnUU+kmAKLha1jZ\n106TV/myUdAswr/9ryMRkvgfyP2V9swpmyrSwNKAlr/Z/nsgBN5f/CNhAoGBAJMx\n+K8DTvxG5D0QBnK54gh6M1RoYtxsicUaBvNiGT4MFGtxEUX6Ink7WuTrI7GIlpg7\n99X7FRSmrTCNtOInF9OHkxvbRiwQvkn5BoGsxnfj8iIn0ydv13eU0cEJTghsHssF\nM0xbKxlyJYz1/MuD3fti6I+OIdH3gbKDIVvpRUCfAoGBALL3UMiYfh2zFJp7p2K1\nnA6rF5F/hiVSMl03WWcA9ZtAt6dCMcC2lB1jf0uFBbds+nEyTTCicoKcT0KCXnsZ\naLrAhyxBRTc8+bM4mZB18dML8iWa8yN6QJi0gkL2XdhXMm+PBTqvWlxydHVvfGcL\n3qggeOYMEBkWvRHzV1Srtfdp\n-----END PRIVATE KEY-----\n",
  "client_email": "firebase-adminsdk-75fw6@spane-eae46.iam.gserviceaccount.com",
  "client_id": "118217604829790541537",
  "auth_uri": "https://accounts.google.com/o/oauth2/auth",
  "token_uri": "https://accounts.google.com/o/oauth2/token",
  "auth_provider_x509_cert_url": "https://www.googleapis.com/oauth2/v1/certs",
  "client_x509_cert_url": "https://www.googleapis.com/robot/v1/metadata/x509/firebase-adminsdk-75fw6%40spane-eae46.iam.gserviceaccount.com"
}
